<?xml version="1.0" encoding="UTF-8" standalone="no"?>
<!-- Created with Inkscape (http://www.inkscape.org/) -->

<svg
   xmlns:dc="http://purl.org/dc/elements/1.1/"
   xmlns:cc="http://creativecommons.org/ns#"
   xmlns:rdf="http://www.w3.org/1999/02/22-rdf-syntax-ns#"
   xmlns:svg="http://www.w3.org/2000/svg"
   xmlns="http://www.w3.org/2000/svg"
   xmlns:sodipodi="http://sodipodi.sourceforge.net/DTD/sodipodi-0.dtd"
   xmlns:inkscape="http://www.inkscape.org/namespaces/inkscape"
   width="1612.1726"
   height="905.03619"
   viewBox="0 0 426.55399 239.4575"
   version="1.1"
   id="svg8"
   inkscape:version="0.92.1 r15371"
   sodipodi:docname="Emmabuntus-Wallpaper-05-1600x900.svg"
   inkscape:export-filename="/home/odysseus/Documents/Odysseus Libre/Mon Art Libre 2017/Emmausbuntu/Emmabuntus/Emmabuntus-Wallpaper-05-1600x900.png"
   inkscape:export-xdpi="96"
   inkscape:export-ydpi="96">
  <title
     id="title4553">Fond d'écran pour Emmabuntus</title>
  <defs
     id="defs2" />
  <sodipodi:namedview
     id="base"
     pagecolor="#ffffff"
     bordercolor="#666666"
     borderopacity="1.0"
     inkscape:pageopacity="0.0"
     inkscape:pageshadow="2"
     inkscape:zoom="0.83691406"
     inkscape:cx="1183.0607"
     inkscape:cy="333.65374"
     inkscape:document-units="mm"
     inkscape:current-layer="layer2"
     showgrid="false"
     units="px"
     inkscape:window-width="1280"
     inkscape:window-height="927"
     inkscape:window-x="1680"
     inkscape:window-y="27"
     inkscape:window-maximized="1"
     showborder="false"
     borderlayer="false"
     inkscape:showpageshadow="false"
     fit-margin-top="0"
     fit-margin-left="0"
     fit-margin-right="0"
     fit-margin-bottom="0" />
  <metadata
     id="metadata5">
    <rdf:RDF>
      <cc:Work
         rdf:about="">
        <dc:format>image/svg+xml</dc:format>
        <dc:type
           rdf:resource="http://purl.org/dc/dcmitype/StillImage" />
        <dc:title>Fond d'écran pour Emmabuntus</dc:title>
        <cc:license
           rdf:resource="http://artlibre.org/licence/lal" />
        <dc:creator>
          <cc:Agent>
            <dc:title>Odysseus Libre</dc:title>
          </cc:Agent>
        </dc:creator>
      </cc:Work>
      <cc:License
         rdf:about="http://artlibre.org/licence/lal">
        <cc:permits
           rdf:resource="http://creativecommons.org/ns#Reproduction" />
        <cc:permits
           rdf:resource="http://creativecommons.org/ns#Distribution" />
        <cc:permits
           rdf:resource="http://creativecommons.org/ns#DerivativeWorks" />
        <cc:requires
           rdf:resource="http://creativecommons.org/ns#ShareAlike" />
        <cc:requires
           rdf:resource="http://creativecommons.org/ns#Notice" />
        <cc:requires
           rdf:resource="http://creativecommons.org/ns#Attribution" />
      </cc:License>
    </rdf:RDF>
  </metadata>
  <g
     inkscape:label="fond"
     inkscape:groupmode="layer"
     id="layer1"
     transform="translate(-0.74076569,-57.943428)">
    <rect
       style="fill:#00222b;fill-opacity:1;stroke:none;stroke-width:23.18821716;stroke-miterlimit:4;stroke-dasharray:none;stroke-opacity:1"
       id="rect5578"
       width="426.55402"
       height="239.45749"
       x="0.74076569"
       y="57.943428" />
  </g>
  <g
     inkscape:groupmode="layer"
     id="layer2"
     inkscape:label="logo"
     transform="translate(-0.74076569,-31.876778)">
    <ellipse
       style="fill:#ffffff;fill-opacity:0.02051284;stroke:none;stroke-width:43.20107651;stroke-miterlimit:4;stroke-dasharray:none;stroke-opacity:1"
       id="path5635"
       cx="432.18411"
       cy="181.14954"
       rx="146.5858"
       ry="141.90891" />
    <ellipse
       style="fill:#ffffff;fill-opacity:0.02051284;stroke:none;stroke-width:60.15296173;stroke-miterlimit:4;stroke-dasharray:none;stroke-opacity:1"
       id="path5635-8"
       cx="108.8323"
       cy="149.61461"
       rx="208.91356"
       ry="193.04555" />
    <ellipse
       style="fill:#ffffff;fill-opacity:0.02051284;stroke:none;stroke-width:56.72711563;stroke-miterlimit:4;stroke-dasharray:none;stroke-opacity:1"
       id="path5635-8-8"
       cx="137.65009"
       cy="87.143944"
       rx="212.70702"
       ry="168.62112" />
    <ellipse
       style="fill:#ffffff;fill-opacity:0.02051284;stroke:none;stroke-width:49.65107346;stroke-miterlimit:4;stroke-dasharray:none;stroke-opacity:1"
       id="path5635-4"
       cx="169.1322"
       cy="327.6514"
       rx="219.89983"
       ry="124.95246" />
    <g
       id="g5478"
       transform="matrix(0.35531646,0,0,0.35531646,266.1267,162.25978)">
      <g
         transform="matrix(1.2987165,0,0,1.2987165,138.33934,30.178978)"
         style="fill:#800000"
         id="g5134">
        <path
           style="fill:#800000;fill-opacity:1;stroke:none;stroke-width:22.2838707;stroke-miterlimit:4;stroke-dasharray:none;stroke-opacity:1"
           d="m 171.80858,118.28418 a 17.548349,17.548349 0 0 0 -17.54828,17.54829 17.548349,17.548349 0 0 0 17.54828,17.54828 17.548349,17.548349 0 0 0 17.54829,-17.54828 17.548349,17.548349 0 0 0 -17.54829,-17.54829 z m 0,5.36505 a 12.183249,12.183249 0 0 1 12.18324,12.18324 12.183249,12.183249 0 0 1 -12.18324,12.18323 12.183249,12.183249 0 0 1 -12.18323,-12.18323 12.183249,12.183249 0 0 1 12.18323,-12.18324 z"
           id="path5092"
           inkscape:connector-curvature="0" />
        <g
           style="fill:#800000"
           id="g4671"
           transform="matrix(0.19045733,0,0,0.19045733,138.5809,110.07781)">
          <circle
             r="21.00968"
             cy="134.86874"
             cx="73.613228"
             id="path4488"
             style="fill:#800000;fill-opacity:1;stroke:none;stroke-width:10;stroke-miterlimit:4;stroke-dasharray:none;stroke-opacity:1" />
          <rect
             transform="rotate(17.52613)"
             ry="2.0684953"
             y="28.647593"
             x="105.80254"
             height="51.850277"
             width="5.3453903"
             id="rect4600-7"
             style="fill:#800000;fill-opacity:1;stroke:none;stroke-width:28.44329643;stroke-miterlimit:4;stroke-dasharray:none;stroke-opacity:1" />
          <rect
             transform="matrix(-0.95357971,0.30114072,0.30114072,0.95357971,0,0)"
             ry="2.0684953"
             y="176.50999"
             x="-29.984787"
             height="51.850273"
             width="5.3453903"
             id="rect4600-7-5"
             style="fill:#800000;fill-opacity:1;stroke:none;stroke-width:28.44329643;stroke-miterlimit:4;stroke-dasharray:none;stroke-opacity:1" />
          <rect
             transform="rotate(-47.08969)"
             ry="2.0684953"
             y="67.82547"
             x="-53.692364"
             height="51.850273"
             width="5.3453903"
             id="rect4600-7-3"
             style="fill:#800000;fill-opacity:1;stroke:none;stroke-width:28.44329643;stroke-miterlimit:4;stroke-dasharray:none;stroke-opacity:1" />
          <rect
             transform="matrix(0.68085266,0.73242041,0.73242041,-0.68085266,0,0)"
             ry="2.0684953"
             y="-116.05782"
             x="144.11824"
             height="51.850269"
             width="5.3453903"
             id="rect4600-7-3-5"
             style="fill:#800000;fill-opacity:1;stroke:none;stroke-width:28.44329643;stroke-miterlimit:4;stroke-dasharray:none;stroke-opacity:1" />
        </g>
        <g
           style="fill:#800000"
           transform="matrix(-0.12543758,0.14331576,-0.14331576,-0.12543758,213.14803,127.37763)"
           id="g4671-0">
          <circle
             r="21.00968"
             cy="134.86874"
             cx="73.613228"
             id="path4488-9"
             style="fill:#800000;fill-opacity:1;stroke:none;stroke-width:10;stroke-miterlimit:4;stroke-dasharray:none;stroke-opacity:1" />
          <rect
             transform="rotate(17.52613)"
             ry="2.0684953"
             y="28.647593"
             x="105.80254"
             height="51.850277"
             width="5.3453903"
             id="rect4600-7-36"
             style="fill:#800000;fill-opacity:1;stroke:none;stroke-width:28.44329643;stroke-miterlimit:4;stroke-dasharray:none;stroke-opacity:1" />
          <rect
             transform="matrix(-0.95357971,0.30114072,0.30114072,0.95357971,0,0)"
             ry="2.0684953"
             y="176.50999"
             x="-29.984787"
             height="51.850273"
             width="5.3453903"
             id="rect4600-7-5-0"
             style="fill:#800000;fill-opacity:1;stroke:none;stroke-width:28.44329643;stroke-miterlimit:4;stroke-dasharray:none;stroke-opacity:1" />
          <rect
             transform="rotate(-47.08969)"
             ry="2.0684953"
             y="67.82547"
             x="-53.692364"
             height="51.850273"
             width="5.3453903"
             id="rect4600-7-3-6"
             style="fill:#800000;fill-opacity:1;stroke:none;stroke-width:28.44329643;stroke-miterlimit:4;stroke-dasharray:none;stroke-opacity:1" />
          <rect
             transform="matrix(0.68085266,0.73242041,0.73242041,-0.68085266,0,0)"
             ry="2.0684953"
             y="-116.05782"
             x="144.11824"
             height="51.850269"
             width="5.3453903"
             id="rect4600-7-3-5-2"
             style="fill:#800000;fill-opacity:1;stroke:none;stroke-width:28.44329643;stroke-miterlimit:4;stroke-dasharray:none;stroke-opacity:1" />
        </g>
        <g
           style="fill:#800000"
           transform="matrix(-0.11560277,-0.15136048,0.15136048,-0.11560277,171.74822,177.7811)"
           id="g4671-0-6">
          <circle
             r="21.00968"
             cy="134.86874"
             cx="73.613228"
             id="path4488-9-1"
             style="fill:#800000;fill-opacity:1;stroke:none;stroke-width:10;stroke-miterlimit:4;stroke-dasharray:none;stroke-opacity:1" />
          <rect
             transform="rotate(17.52613)"
             ry="2.0684953"
             y="28.647593"
             x="105.80254"
             height="51.850277"
             width="5.3453903"
             id="rect4600-7-36-8"
             style="fill:#800000;fill-opacity:1;stroke:none;stroke-width:28.44329643;stroke-miterlimit:4;stroke-dasharray:none;stroke-opacity:1" />
          <rect
             transform="matrix(-0.95357971,0.30114072,0.30114072,0.95357971,0,0)"
             ry="2.0684953"
             y="176.50999"
             x="-29.984787"
             height="51.850273"
             width="5.3453903"
             id="rect4600-7-5-0-7"
             style="fill:#800000;fill-opacity:1;stroke:none;stroke-width:28.44329643;stroke-miterlimit:4;stroke-dasharray:none;stroke-opacity:1" />
          <rect
             transform="rotate(-47.08969)"
             ry="2.0684953"
             y="67.82547"
             x="-53.692364"
             height="51.850273"
             width="5.3453903"
             id="rect4600-7-3-6-9"
             style="fill:#800000;fill-opacity:1;stroke:none;stroke-width:28.44329643;stroke-miterlimit:4;stroke-dasharray:none;stroke-opacity:1" />
          <rect
             transform="matrix(0.68085266,0.73242041,0.73242041,-0.68085266,0,0)"
             ry="2.0684953"
             y="-116.05782"
             x="144.11824"
             height="51.850269"
             width="5.3453903"
             id="rect4600-7-3-5-2-2"
             style="fill:#800000;fill-opacity:1;stroke:none;stroke-width:28.44329643;stroke-miterlimit:4;stroke-dasharray:none;stroke-opacity:1" />
        </g>
        <path
           style="fill:#800000;fill-opacity:1;stroke:none;stroke-width:4.93408966;stroke-miterlimit:4;stroke-dasharray:none;stroke-opacity:1"
           d="m 171.53228,126.76192 a 9.0705284,9.0705284 0 0 0 -8.51794,5.97641 h 4.16991 a 5.340591,5.340591 0 0 1 4.34803,-2.24645 5.340591,5.340591 0 0 1 5.3406,5.34059 5.340591,5.340591 0 0 1 -5.3406,5.34059 5.340591,5.340591 0 0 1 -4.34479,-2.24646 h -4.16955 a 9.0705284,9.0705284 0 0 0 8.51434,5.97641 9.0705284,9.0705284 0 0 0 9.07055,-9.07054 9.0705284,9.0705284 0 0 0 -9.07055,-9.07055 z"
           id="path4773"
           inkscape:connector-curvature="0" />
      </g>
      <g
         transform="matrix(1.2987165,0,0,1.2987165,-29.483078,30.178979)"
         style="fill:#445500"
         id="g5134-7">
        <path
           style="fill:#445500;fill-opacity:1;stroke:none;stroke-width:22.2838707;stroke-miterlimit:4;stroke-dasharray:none;stroke-opacity:1"
           d="m 171.80858,118.28418 a 17.548349,17.548349 0 0 0 -17.54828,17.54829 17.548349,17.548349 0 0 0 17.54828,17.54828 17.548349,17.548349 0 0 0 17.54829,-17.54828 17.548349,17.548349 0 0 0 -17.54829,-17.54829 z m 0,5.36505 a 12.183249,12.183249 0 0 1 12.18324,12.18324 12.183249,12.183249 0 0 1 -12.18324,12.18323 12.183249,12.183249 0 0 1 -12.18323,-12.18323 12.183249,12.183249 0 0 1 12.18323,-12.18324 z"
           id="path5092-3"
           inkscape:connector-curvature="0" />
        <g
           style="fill:#445500"
           id="g4671-6"
           transform="matrix(0.19045733,0,0,0.19045733,138.5809,110.07781)">
          <circle
             r="21.00968"
             cy="134.86874"
             cx="73.613228"
             id="path4488-1"
             style="fill:#445500;fill-opacity:1;stroke:none;stroke-width:10;stroke-miterlimit:4;stroke-dasharray:none;stroke-opacity:1" />
          <rect
             transform="rotate(17.52613)"
             ry="2.0684953"
             y="28.647593"
             x="105.80254"
             height="51.850277"
             width="5.3453903"
             id="rect4600-7-2"
             style="fill:#445500;fill-opacity:1;stroke:none;stroke-width:28.44329643;stroke-miterlimit:4;stroke-dasharray:none;stroke-opacity:1" />
          <rect
             transform="matrix(-0.95357971,0.30114072,0.30114072,0.95357971,0,0)"
             ry="2.0684953"
             y="176.50999"
             x="-29.984787"
             height="51.850273"
             width="5.3453903"
             id="rect4600-7-5-9"
             style="fill:#445500;fill-opacity:1;stroke:none;stroke-width:28.44329643;stroke-miterlimit:4;stroke-dasharray:none;stroke-opacity:1" />
          <rect
             transform="rotate(-47.08969)"
             ry="2.0684953"
             y="67.82547"
             x="-53.692364"
             height="51.850273"
             width="5.3453903"
             id="rect4600-7-3-3"
             style="fill:#445500;fill-opacity:1;stroke:none;stroke-width:28.44329643;stroke-miterlimit:4;stroke-dasharray:none;stroke-opacity:1" />
          <rect
             transform="matrix(0.68085266,0.73242041,0.73242041,-0.68085266,0,0)"
             ry="2.0684953"
             y="-116.05782"
             x="144.11824"
             height="51.850269"
             width="5.3453903"
             id="rect4600-7-3-5-1"
             style="fill:#445500;fill-opacity:1;stroke:none;stroke-width:28.44329643;stroke-miterlimit:4;stroke-dasharray:none;stroke-opacity:1" />
        </g>
        <g
           style="fill:#445500"
           transform="matrix(-0.12543758,0.14331576,-0.14331576,-0.12543758,213.14803,127.37763)"
           id="g4671-0-9">
          <circle
             r="21.00968"
             cy="134.86874"
             cx="73.613228"
             id="path4488-9-4"
             style="fill:#445500;fill-opacity:1;stroke:none;stroke-width:10;stroke-miterlimit:4;stroke-dasharray:none;stroke-opacity:1" />
          <rect
             transform="rotate(17.52613)"
             ry="2.0684953"
             y="28.647593"
             x="105.80254"
             height="51.850277"
             width="5.3453903"
             id="rect4600-7-36-7"
             style="fill:#445500;fill-opacity:1;stroke:none;stroke-width:28.44329643;stroke-miterlimit:4;stroke-dasharray:none;stroke-opacity:1" />
          <rect
             transform="matrix(-0.95357971,0.30114072,0.30114072,0.95357971,0,0)"
             ry="2.0684953"
             y="176.50999"
             x="-29.984787"
             height="51.850273"
             width="5.3453903"
             id="rect4600-7-5-0-8"
             style="fill:#445500;fill-opacity:1;stroke:none;stroke-width:28.44329643;stroke-miterlimit:4;stroke-dasharray:none;stroke-opacity:1" />
          <rect
             transform="rotate(-47.08969)"
             ry="2.0684953"
             y="67.82547"
             x="-53.692364"
             height="51.850273"
             width="5.3453903"
             id="rect4600-7-3-6-4"
             style="fill:#445500;fill-opacity:1;stroke:none;stroke-width:28.44329643;stroke-miterlimit:4;stroke-dasharray:none;stroke-opacity:1" />
          <rect
             transform="matrix(0.68085266,0.73242041,0.73242041,-0.68085266,0,0)"
             ry="2.0684953"
             y="-116.05782"
             x="144.11824"
             height="51.850269"
             width="5.3453903"
             id="rect4600-7-3-5-2-5"
             style="fill:#445500;fill-opacity:1;stroke:none;stroke-width:28.44329643;stroke-miterlimit:4;stroke-dasharray:none;stroke-opacity:1" />
        </g>
        <g
           style="fill:#445500"
           transform="matrix(-0.11560277,-0.15136048,0.15136048,-0.11560277,171.74822,177.7811)"
           id="g4671-0-6-0">
          <circle
             r="21.00968"
             cy="134.86874"
             cx="73.613228"
             id="path4488-9-1-3"
             style="fill:#445500;fill-opacity:1;stroke:none;stroke-width:10;stroke-miterlimit:4;stroke-dasharray:none;stroke-opacity:1" />
          <rect
             transform="rotate(17.52613)"
             ry="2.0684953"
             y="28.647593"
             x="105.80254"
             height="51.850277"
             width="5.3453903"
             id="rect4600-7-36-8-6"
             style="fill:#445500;fill-opacity:1;stroke:none;stroke-width:28.44329643;stroke-miterlimit:4;stroke-dasharray:none;stroke-opacity:1" />
          <rect
             transform="matrix(-0.95357971,0.30114072,0.30114072,0.95357971,0,0)"
             ry="2.0684953"
             y="176.50999"
             x="-29.984787"
             height="51.850273"
             width="5.3453903"
             id="rect4600-7-5-0-7-1"
             style="fill:#445500;fill-opacity:1;stroke:none;stroke-width:28.44329643;stroke-miterlimit:4;stroke-dasharray:none;stroke-opacity:1" />
          <rect
             transform="rotate(-47.08969)"
             ry="2.0684953"
             y="67.82547"
             x="-53.692364"
             height="51.850273"
             width="5.3453903"
             id="rect4600-7-3-6-9-0"
             style="fill:#445500;fill-opacity:1;stroke:none;stroke-width:28.44329643;stroke-miterlimit:4;stroke-dasharray:none;stroke-opacity:1" />
          <rect
             transform="matrix(0.68085266,0.73242041,0.73242041,-0.68085266,0,0)"
             ry="2.0684953"
             y="-116.05782"
             x="144.11824"
             height="51.850269"
             width="5.3453903"
             id="rect4600-7-3-5-2-2-6"
             style="fill:#445500;fill-opacity:1;stroke:none;stroke-width:28.44329643;stroke-miterlimit:4;stroke-dasharray:none;stroke-opacity:1" />
        </g>
        <path
           style="fill:#445500;fill-opacity:1;stroke:none;stroke-width:4.93408966;stroke-miterlimit:4;stroke-dasharray:none;stroke-opacity:1"
           d="m 171.53228,126.76192 a 9.0705284,9.0705284 0 0 0 -8.51794,5.97641 h 4.16991 a 5.340591,5.340591 0 0 1 4.34803,-2.24645 5.340591,5.340591 0 0 1 5.3406,5.34059 5.340591,5.340591 0 0 1 -5.3406,5.34059 5.340591,5.340591 0 0 1 -4.34479,-2.24646 h -4.16955 a 9.0705284,9.0705284 0 0 0 8.51434,5.97641 9.0705284,9.0705284 0 0 0 9.07055,-9.07054 9.0705284,9.0705284 0 0 0 -9.07055,-9.07055 z"
           id="path4773-3"
           inkscape:connector-curvature="0" />
      </g>
      <g
         transform="matrix(1.2987165,0,0,1.2987165,54.428111,30.178978)"
         style="fill:#aa8800"
         id="g5134-2">
        <path
           style="fill:#aa8800;fill-opacity:1;stroke:none;stroke-width:22.2838707;stroke-miterlimit:4;stroke-dasharray:none;stroke-opacity:1"
           d="m 171.80858,118.28418 a 17.548349,17.548349 0 0 0 -17.54828,17.54829 17.548349,17.548349 0 0 0 17.54828,17.54828 17.548349,17.548349 0 0 0 17.54829,-17.54828 17.548349,17.548349 0 0 0 -17.54829,-17.54829 z m 0,5.36505 a 12.183249,12.183249 0 0 1 12.18324,12.18324 12.183249,12.183249 0 0 1 -12.18324,12.18323 12.183249,12.183249 0 0 1 -12.18323,-12.18323 12.183249,12.183249 0 0 1 12.18323,-12.18324 z"
           id="path5092-0"
           inkscape:connector-curvature="0" />
        <g
           style="fill:#aa8800"
           id="g4671-61"
           transform="matrix(0.19045733,0,0,0.19045733,138.5809,110.07781)">
          <circle
             r="21.00968"
             cy="134.86874"
             cx="73.613228"
             id="path4488-5"
             style="fill:#aa8800;fill-opacity:1;stroke:none;stroke-width:10;stroke-miterlimit:4;stroke-dasharray:none;stroke-opacity:1" />
          <rect
             transform="rotate(17.52613)"
             ry="2.0684953"
             y="28.647593"
             x="105.80254"
             height="51.850277"
             width="5.3453903"
             id="rect4600-7-54"
             style="fill:#aa8800;fill-opacity:1;stroke:none;stroke-width:28.44329643;stroke-miterlimit:4;stroke-dasharray:none;stroke-opacity:1" />
          <rect
             transform="matrix(-0.95357971,0.30114072,0.30114072,0.95357971,0,0)"
             ry="2.0684953"
             y="176.50999"
             x="-29.984787"
             height="51.850273"
             width="5.3453903"
             id="rect4600-7-5-7"
             style="fill:#aa8800;fill-opacity:1;stroke:none;stroke-width:28.44329643;stroke-miterlimit:4;stroke-dasharray:none;stroke-opacity:1" />
          <rect
             transform="rotate(-47.08969)"
             ry="2.0684953"
             y="67.82547"
             x="-53.692364"
             height="51.850273"
             width="5.3453903"
             id="rect4600-7-3-65"
             style="fill:#aa8800;fill-opacity:1;stroke:none;stroke-width:28.44329643;stroke-miterlimit:4;stroke-dasharray:none;stroke-opacity:1" />
          <rect
             transform="matrix(0.68085266,0.73242041,0.73242041,-0.68085266,0,0)"
             ry="2.0684953"
             y="-116.05782"
             x="144.11824"
             height="51.850269"
             width="5.3453903"
             id="rect4600-7-3-5-6"
             style="fill:#aa8800;fill-opacity:1;stroke:none;stroke-width:28.44329643;stroke-miterlimit:4;stroke-dasharray:none;stroke-opacity:1" />
        </g>
        <g
           style="fill:#aa8800"
           transform="matrix(-0.12543758,0.14331576,-0.14331576,-0.12543758,213.14803,127.37763)"
           id="g4671-0-93">
          <circle
             r="21.00968"
             cy="134.86874"
             cx="73.613228"
             id="path4488-9-7"
             style="fill:#aa8800;fill-opacity:1;stroke:none;stroke-width:10;stroke-miterlimit:4;stroke-dasharray:none;stroke-opacity:1" />
          <rect
             transform="rotate(17.52613)"
             ry="2.0684953"
             y="28.647593"
             x="105.80254"
             height="51.850277"
             width="5.3453903"
             id="rect4600-7-36-4"
             style="fill:#aa8800;fill-opacity:1;stroke:none;stroke-width:28.44329643;stroke-miterlimit:4;stroke-dasharray:none;stroke-opacity:1" />
          <rect
             transform="matrix(-0.95357971,0.30114072,0.30114072,0.95357971,0,0)"
             ry="2.0684953"
             y="176.50999"
             x="-29.984787"
             height="51.850273"
             width="5.3453903"
             id="rect4600-7-5-0-5"
             style="fill:#aa8800;fill-opacity:1;stroke:none;stroke-width:28.44329643;stroke-miterlimit:4;stroke-dasharray:none;stroke-opacity:1" />
          <rect
             transform="rotate(-47.08969)"
             ry="2.0684953"
             y="67.82547"
             x="-53.692364"
             height="51.850273"
             width="5.3453903"
             id="rect4600-7-3-6-2"
             style="fill:#aa8800;fill-opacity:1;stroke:none;stroke-width:28.44329643;stroke-miterlimit:4;stroke-dasharray:none;stroke-opacity:1" />
          <rect
             transform="matrix(0.68085266,0.73242041,0.73242041,-0.68085266,0,0)"
             ry="2.0684953"
             y="-116.05782"
             x="144.11824"
             height="51.850269"
             width="5.3453903"
             id="rect4600-7-3-5-2-54"
             style="fill:#aa8800;fill-opacity:1;stroke:none;stroke-width:28.44329643;stroke-miterlimit:4;stroke-dasharray:none;stroke-opacity:1" />
        </g>
        <g
           style="fill:#aa8800"
           transform="matrix(-0.11560277,-0.15136048,0.15136048,-0.11560277,171.74822,177.7811)"
           id="g4671-0-6-7">
          <circle
             r="21.00968"
             cy="134.86874"
             cx="73.613228"
             id="path4488-9-1-4"
             style="fill:#aa8800;fill-opacity:1;stroke:none;stroke-width:10;stroke-miterlimit:4;stroke-dasharray:none;stroke-opacity:1" />
          <rect
             transform="rotate(17.52613)"
             ry="2.0684953"
             y="28.647593"
             x="105.80254"
             height="51.850277"
             width="5.3453903"
             id="rect4600-7-36-8-4"
             style="fill:#aa8800;fill-opacity:1;stroke:none;stroke-width:28.44329643;stroke-miterlimit:4;stroke-dasharray:none;stroke-opacity:1" />
          <rect
             transform="matrix(-0.95357971,0.30114072,0.30114072,0.95357971,0,0)"
             ry="2.0684953"
             y="176.50999"
             x="-29.984787"
             height="51.850273"
             width="5.3453903"
             id="rect4600-7-5-0-7-3"
             style="fill:#aa8800;fill-opacity:1;stroke:none;stroke-width:28.44329643;stroke-miterlimit:4;stroke-dasharray:none;stroke-opacity:1" />
          <rect
             transform="rotate(-47.08969)"
             ry="2.0684953"
             y="67.82547"
             x="-53.692364"
             height="51.850273"
             width="5.3453903"
             id="rect4600-7-3-6-9-07"
             style="fill:#aa8800;fill-opacity:1;stroke:none;stroke-width:28.44329643;stroke-miterlimit:4;stroke-dasharray:none;stroke-opacity:1" />
          <rect
             transform="matrix(0.68085266,0.73242041,0.73242041,-0.68085266,0,0)"
             ry="2.0684953"
             y="-116.05782"
             x="144.11824"
             height="51.850269"
             width="5.3453903"
             id="rect4600-7-3-5-2-2-8"
             style="fill:#aa8800;fill-opacity:1;stroke:none;stroke-width:28.44329643;stroke-miterlimit:4;stroke-dasharray:none;stroke-opacity:1" />
        </g>
        <path
           style="fill:#aa8800;fill-opacity:1;stroke:none;stroke-width:4.93408966;stroke-miterlimit:4;stroke-dasharray:none;stroke-opacity:1"
           d="m 171.53228,126.76192 a 9.0705284,9.0705284 0 0 0 -8.51794,5.97641 h 4.16991 a 5.340591,5.340591 0 0 1 4.34803,-2.24645 5.340591,5.340591 0 0 1 5.3406,5.34059 5.340591,5.340591 0 0 1 -5.3406,5.34059 5.340591,5.340591 0 0 1 -4.34479,-2.24646 h -4.16955 a 9.0705284,9.0705284 0 0 0 8.51434,5.97641 9.0705284,9.0705284 0 0 0 9.07055,-9.07054 9.0705284,9.0705284 0 0 0 -9.07055,-9.07055 z"
           id="path4773-6"
           inkscape:connector-curvature="0" />
      </g>
    </g>
  </g>
  <g
     inkscape:groupmode="layer"
     id="layer3"
     inkscape:label="reflets"
     transform="translate(-0.74076569,-31.876778)" />
</svg>
